…
``` r
donors %>% arrange(desc(donation_total))
```

    ## # A tibble: 1,048,567 × 21
    ##    donationid    proje…¹ donor…² donor…³ donor…⁴ donor…⁵ is_te…⁶ donat…⁷ donat…⁸
    ##    <chr>         <chr>   <chr>   <chr>   <chr>     <dbl> <lgl>   <chr>     <dbl>
    ##  1 c71f833b9d26… dc106a… dd3831… New Yo… NY        10001 FALSE   33:52.4  85000 
    ##  2 8731fe0e534c… b13aaa… 774cba… Anahola HI        96703 FALSE   25:57.8  60000 
    ##  3 2a9e7bf2ce74… c1476d… f88363… <NA>    NY           NA FALSE   10:27.5  36833.
    ##  4 0ee455b42d2c… dc106a… 8fc3f6… <NA>    NY           NA FALSE   47:59.2  33475.
    ##  5 bac53805448e… ba5b7f… 8fc3f6… <NA>    NY           NA FALSE   07:17.6  31875.
    ##  6 3c017dd0c893… ad1953… 92e05c… Palo A… CA        94303 FALSE   09:13.7  26369.
    ##  7 4367e69b4d75… dc106a… 89f8dd… New Yo… NY        10001 FALSE   42:23.5  21250 
    ##  8 8cb97adbdd06… e45cbc… 4c413c… New Yo… NY        10019 FALSE   40:23.0  20717 
    ##  9 3822b87e18f9… c434c0… 13b791… <NA>    LA           NA FALSE   54:02.0  22990 
    ## 10 88ffa0453dad… dcd8bb… 33a41b… San Fr… CA        94102 FALSE   58:05.2  17000 
    ## # … with 1,048,557 more rows, 12 more variables:
    ## #   donation_optional_support <dbl>, donation_total <dbl>, dollar_amount <chr>,
    ## #   donation_included_optional_support <lgl>, payment_method <chr>,
    ## #   payment_included_acct_credit <lgl>,
    ## #   payment_included_campaign_gift_card <lgl>,
    ## #   payment_included_web_purchased_gift_card <lgl>,
    ## #   payment_was_promo_matched <lgl>, via_giving_page <lgl>, …
…
``` r
donors_prep %>%
  filter(cluster == 1) %>%
  group_by(donor_state) %>%
  summarise(n=n()) %>%
  mutate(pct=n/sum(n)) %>%
  arrange(desc(pct))
```

    ## # A tibble: 60 × 3
    ##    donor_state     n    pct
    ##    <chr>       <int>  <dbl>
    ##  1 <NA>        82884 0.286 
    ##  2 CA          63877 0.220 
    ##  3 FL          21217 0.0731
    ##  4 NY          15660 0.0540
    ##  5 TN          12175 0.0420
    ##  6 WA          10110 0.0348
    ##  7 IL           8644 0.0298
    ##  8 TX           6654 0.0229
    ##  9 AZ           5659 0.0195
    ## 10 NC           5087 0.0175
    ## # … with 50 more rows
…
``` r
donors_prep %>%
  filter(cluster == 2) %>%
  group_by(donor_state) %>%
  summarise(n=n()) %>%
  mutate(pct=n/sum(n)) %>%
  arrange(desc(pct))
```

    ## # A tibble: 60 × 3
    ##    donor_state     n    pct
    ##    <chr>       <int>  <dbl>
    ##  1 NY          46986 0.204 
    ##  2 <NA>        34615 0.150 
    ##  3 CA          31652 0.138 
    ##  4 IL          10967 0.0477
    ##  5 TX           8226 0.0357
    ##  6 FL           6763 0.0294
    ##  7 NC           6724 0.0292
    ##  8 PA           5704 0.0248
    ##  9 NJ           5484 0.0238
    ## 10 MA           5183 0.0225
    ## # … with 50 more rows
…
``` r
donors_prep %>%
  filter(cluster == 3) %>%
  group_by(donor_state) %>%
  summarise(n=n()) %>%
  mutate(pct=n/sum(n)) %>%
  arrange(desc(pct))
```

    ## # A tibble: 58 × 3
    ##    donor_state     n    pct
    ##    <chr>       <int>  <dbl>
    ##  1 NY          18886 0.195 
    ##  2 CA          16138 0.167 
    ##  3 <NA>        14617 0.151 
    ##  4 IL           4603 0.0475
    ##  5 TX           3353 0.0346
    ##  6 NC           3073 0.0317
    ##  7 NJ           2717 0.0281
    ##  8 FL           2622 0.0271
    ##  9 WA           2093 0.0216
    ## 10 VA           2027 0.0209
    ## # … with 48 more rows
…
``` r
donors_prep %>%
  filter(cluster == 4) %>%
  group_by(donor_state) %>%
  summarise(n=n()) %>%
  mutate(pct=n/sum(n)) %>%
  arrange(desc(pct))
```

    ## # A tibble: 58 × 3
    ##    donor_state     n    pct
    ##    <chr>       <int>  <dbl>
    ##  1 <NA>        43850 0.308 
    ##  2 CA          19114 0.134 
    ##  3 NY          12807 0.0899
    ##  4 FL           4527 0.0318
    ##  5 NC           4469 0.0314
    ##  6 NJ           4441 0.0312
    ##  7 TX           4369 0.0307
    ##  8 IN           4334 0.0304
    ##  9 IL           4219 0.0296
    ## 10 GA           3916 0.0275
    ## # … with 48 more rows
…
``` r
donors_prep %>%
  filter(cluster == 5) %>%
  group_by(donor_state) %>%
  summarise(n=n()) %>%
  mutate(pct=n/sum(n)) %>%
  arrange(desc(pct))
```

    ## # A tibble: 60 × 3
    ##    donor_state     n    pct
    ##    <chr>       <int>  <dbl>
    ##  1 NY          29342 0.192 
    ##  2 <NA>        25461 0.166 
    ##  3 CA          22638 0.148 
    ##  4 IL           7681 0.0502
    ##  5 TX           5406 0.0353
    ##  6 FL           4310 0.0281
    ##  7 NC           4184 0.0273
    ##  8 NJ           3779 0.0247
    ##  9 PA           3391 0.0221
    ## 10 MA           3376 0.0220
    ## # … with 50 more rows
…
