…
``` r
# -- apply new recipe 
bake_redtrain <- bake(proj_redrecipe, new_data = dl_train)
bake_redtest  <- bake(proj_redrecipe, new_data = dl_test)
bake_redtrain
```

    ## # A tibble: 229,612 × 79
    ##    one_non_tea…¹ great…² teach…³ schoo…⁴ schoo…⁵ schoo…⁶ teach…⁷ total…⁸ eligi…⁹
    ##            <dbl>   <dbl>   <dbl>   <dbl>   <dbl>   <dbl>   <dbl>   <dbl>   <dbl>
    ##  1             1      57       0       0       0       0       0    626.       0
    ##  2             1      80       0       1       0       0       0    688.       1
    ##  3             1       0       0       0       0       0       0    803.       0
    ##  4             1       0       0       0       0       0       1    720.       0
    ##  5             1      50       0       0       0       0       0    577.       1
    ##  6             0      71       4       0       0       0       0    646.       0
    ##  7             1      50       0       0       1       0       0    200.       0
    ##  8             0      57       0       0       0       0       0    563.       0
    ##  9             1      50       0       0       0       0       0    510.       0
    ## 10             1      77       0       0       0       0       0   3238.       0
    ## # … with 229,602 more rows, 70 more variables:
    ## #   eligible_almost_home_match <dbl>, is_exciting <fct>,
    ## #   school_metro_rural <int>, school_metro_suburban <int>,
    ## #   school_metro_urban <int>, primary_focus_subject_Applied.Sciences <int>,
    ## #   primary_focus_subject_Character.Education <int>,
    ## #   primary_focus_subject_Civics...Government <int>,
    ## #   primary_focus_subject_College...Career.Prep <int>, …
…
    ## Warning: glm.fit: fitted probabilities numerically 0 or 1 occurred

``` r
## -- check out your parameter estimates ... 
tidy(logistic1) %>%
  mutate_at(c("estimate", "std.error", "statistic", "p.value"),round, 4)
```

    ## # A tibble: 79 × 5
    ##    term                             estimate std.error statistic p.value
    ##    <chr>                               <dbl>     <dbl>     <dbl>   <dbl>
    ##  1 (Intercept)                       -7.19      0.0809    -88.8   0     
    ##  2 one_non_teacher_referred_donor_g   0.911     0.0195     46.7   0     
    ##  3 great_messages_proportion          0.0551    0.0004    133.    0     
    ##  4 teacher_referred_count             0.571     0.0041    140.    0     
    ##  5 school_charter                     0.281     0.0258     10.9   0     
    ##  6 school_year_round                 -0.134     0.0383     -3.49  0.0005
    ##  7 school_kipp                        0.270     0.0789      3.42  0.0006
    ##  8 teacher_teach_for_america          0.368     0.0291     12.7   0     
    ##  9 total_price_including_optional_s  -0.0005    0         -22.7   0     
    ## 10 eligible_double_your_impact_matc   0.428     0.0182     23.5   0     
    ## # … with 69 more rows
…
